%YAML 1.1
%TAG !u! tag:unity3d.com,2011:
--- !u!319 &31900000
AvatarMask:
  m_ObjectHideFlags: 0
  m_CorrespondingSourceObject: {fileID: 0}
  m_PrefabInstance: {fileID: 0}
  m_PrefabAsset: {fileID: 0}
  m_Name: Jaw Mask
  m_Mask: 00000000000000000000000000000000000000000000000000000000000000000000000000000000000000000000000000000000
  m_Elements:
  - m_Path: 
    m_Weight: 1
  - m_Path: Geometry
    m_Weight: 0
  - m_Path: Geometry/Casual_Guy
    m_Weight: 0
  - m_Path: Main
    m_Weight: 0
  - m_Path: Main/DeformationSystem
    m_Weight: 0
  - m_Path: Main/DeformationSystem/Root_M
    m_Weight: 0
  - m_Path: Main/DeformationSystem/Root_M/Hip_L
    m_Weight: 0
  - m_Path: Main/DeformationSystem/Root_M/Hip_L/Knee_L
    m_Weight: 0
  - m_Path: Main/DeformationSystem/Root_M/Hip_L/Knee_L/Ankle_L
    m_Weight: 0
  - m_Path: Main/DeformationSystem/Root_M/Hip_L/Knee_L/Ankle_L/Toes_L
    m_Weight: 0
  - m_Path: Main/DeformationSystem/Root_M/Hip_L/Knee_L/Ankle_L/Toes_L/ToesEnd_L
    m_Weight: 0
  - m_Path: Main/DeformationSystem/Root_M/Hip_R
    m_Weight: 0
  - m_Path: Main/DeformationSystem/Root_M/Hip_R/Knee_R
    m_Weight: 0
  - m_Path: Main/DeformationSystem/Root_M/Hip_R/Knee_R/Ankle_R
    m_Weight: 0
  - m_Path: Main/DeformationSystem/Root_M/Hip_R/Knee_R/Ankle_R/Toes_R
    m_Weight: 0
  - m_Path: Main/DeformationSystem/Root_M/Hip_R/Knee_R/Ankle_R/Toes_R/ToesEnd_R
    m_Weight: 0
  - m_Path: Main/DeformationSystem/Root_M/Spine1_M
    m_Weight: 0
  - m_Path: Main/DeformationSystem/Root_M/Spine1_M/Chest_M
    m_Weight: 0
  - m_Path: Main/DeformationSystem/Root_M/Spine1_M/Chest_M/Neck_M
    m_Weight: 0
  - m_Path: Main/DeformationSystem/Root_M/Spine1_M/Chest_M/Neck_M/Head_M
    m_Weight: 0
  - m_Path: Main/DeformationSystem/Root_M/Spine1_M/Chest_M/Neck_M/Head_M/Cheek_L
    m_Weight: 0
  - m_Path: Main/DeformationSystem/Root_M/Spine1_M/Chest_M/Neck_M/Head_M/Cheek_R
    m_Weight: 0
  - m_Path: Main/DeformationSystem/Root_M/Spine1_M/Chest_M/Neck_M/Head_M/Eye_L
    m_Weight: 0
  - m_Path: Main/DeformationSystem/Root_M/Spine1_M/Chest_M/Neck_M/Head_M/Eye_L/EyeEnd_L
    m_Weight: 0
  - m_Path: Main/DeformationSystem/Root_M/Spine1_M/Chest_M/Neck_M/Head_M/Eye_R
    m_Weight: 0
  - m_Path: Main/DeformationSystem/Root_M/Spine1_M/Chest_M/Neck_M/Head_M/Eye_R/EyeEnd_R
    m_Weight: 0
  - m_Path: Main/DeformationSystem/Root_M/Spine1_M/Chest_M/Neck_M/Head_M/EyebrowCenter_M
    m_Weight: 0
  - m_Path: Main/DeformationSystem/Root_M/Spine1_M/Chest_M/Neck_M/Head_M/EyebrowInner_L
    m_Weight: 0
  - m_Path: Main/DeformationSystem/Root_M/Spine1_M/Chest_M/Neck_M/Head_M/EyebrowInner_R
    m_Weight: 0
  - m_Path: Main/DeformationSystem/Root_M/Spine1_M/Chest_M/Neck_M/Head_M/EyebrowMid_L
    m_Weight: 0
  - m_Path: Main/DeformationSystem/Root_M/Spine1_M/Chest_M/Neck_M/Head_M/EyebrowMid_R
    m_Weight: 0
  - m_Path: Main/DeformationSystem/Root_M/Spine1_M/Chest_M/Neck_M/Head_M/EyebrowOuter_L
    m_Weight: 0
  - m_Path: Main/DeformationSystem/Root_M/Spine1_M/Chest_M/Neck_M/Head_M/EyebrowOuter_R
    m_Weight: 0
  - m_Path: Main/DeformationSystem/Root_M/Spine1_M/Chest_M/Neck_M/Head_M/HeadEnd_M
    m_Weight: 0
  - m_Path: Main/DeformationSystem/Root_M/Spine1_M/Chest_M/Neck_M/Head_M/Jaw_M
    m_Weight: 1
  - m_Path: Main/DeformationSystem/Root_M/Spine1_M/Chest_M/Neck_M/Head_M/Jaw_M/BottomLip_M
    m_Weight: 1
  - m_Path: Main/DeformationSystem/Root_M/Spine1_M/Chest_M/Neck_M/Head_M/Jaw_M/JawEnd_M
    m_Weight: 1
  - m_Path: Main/DeformationSystem/Root_M/Spine1_M/Chest_M/Neck_M/Head_M/Jaw_M/OuterMouth_L
    m_Weight: 1
  - m_Path: Main/DeformationSystem/Root_M/Spine1_M/Chest_M/Neck_M/Head_M/Jaw_M/OuterMouth_R
    m_Weight: 1
  - m_Path: Main/DeformationSystem/Root_M/Spine1_M/Chest_M/Neck_M/Head_M/LowerCheek_L
    m_Weight: 0
  - m_Path: Main/DeformationSystem/Root_M/Spine1_M/Chest_M/Neck_M/Head_M/LowerCheek_R
    m_Weight: 0
  - m_Path: Main/DeformationSystem/Root_M/Spine1_M/Chest_M/Neck_M/Head_M/LowerNose_L
    m_Weight: 0
  - m_Path: Main/DeformationSystem/Root_M/Spine1_M/Chest_M/Neck_M/Head_M/LowerNose_R
    m_Weight: 0
  - m_Path: Main/DeformationSystem/Root_M/Spine1_M/Chest_M/Neck_M/Head_M/LowerNoseMid_M
    m_Weight: 0
  - m_Path: Main/DeformationSystem/Root_M/Spine1_M/Chest_M/Neck_M/Head_M/UpperLip_M
    m_Weight: 0
  - m_Path: Main/DeformationSystem/Root_M/Spine1_M/Chest_M/Neck_M/Head_M/UpperNose_L
    m_Weight: 0
  - m_Path: Main/DeformationSystem/Root_M/Spine1_M/Chest_M/Neck_M/Head_M/UpperNose_R
    m_Weight: 0
  - m_Path: Main/DeformationSystem/Root_M/Spine1_M/Chest_M/Scapula_L
    m_Weight: 0
  - m_Path: Main/DeformationSystem/Root_M/Spine1_M/Chest_M/Scapula_L/Shoulder_L
    m_Weight: 0
  - m_Path: Main/DeformationSystem/Root_M/Spine1_M/Chest_M/Scapula_L/Shoulder_L/Elbow_L
    m_Weight: 0
  - m_Path: Main/DeformationSystem/Root_M/Spine1_M/Chest_M/Scapula_L/Shoulder_L/Elbow_L/Wrist_L
    m_Weight: 0
  - m_Path: Main/DeformationSystem/Root_M/Spine1_M/Chest_M/Scapula_L/Shoulder_L/Elbow_L/Wrist_L/IndexFinger1_L
    m_Weight: 0
  - m_Path: Main/DeformationSystem/Root_M/Spine1_M/Chest_M/Scapula_L/Shoulder_L/Elbow_L/Wrist_L/IndexFinger1_L/IndexFinger2_L
    m_Weight: 0
  - m_Path: Main/DeformationSystem/Root_M/Spine1_M/Chest_M/Scapula_L/Shoulder_L/Elbow_L/Wrist_L/IndexFinger1_L/IndexFinger2_L/IndexFinger3_L
    m_Weight: 0
  - m_Path: Main/DeformationSystem/Root_M/Spine1_M/Chest_M/Scapula_L/Shoulder_L/Elbow_L/Wrist_L/MiddleFinger1_L
    m_Weight: 0
  - m_Path: Main/DeformationSystem/Root_M/Spine1_M/Chest_M/Scapula_L/Shoulder_L/Elbow_L/Wrist_L/MiddleFinger1_L/MiddleFinger2_L
    m_Weight: 0
  - m_Path: Main/DeformationSystem/Root_M/Spine1_M/Chest_M/Scapula_L/Shoulder_L/Elbow_L/Wrist_L/MiddleFinger1_L/MiddleFinger2_L/MiddleFinger3_L
    m_Weight: 0
  - m_Path: Main/DeformationSystem/Root_M/Spine1_M/Chest_M/Scapula_L/Shoulder_L/Elbow_L/Wrist_L/PinkyFinger1_L
    m_Weight: 0
  - m_Path: Main/DeformationSystem/Root_M/Spine1_M/Chest_M/Scapula_L/Shoulder_L/Elbow_L/Wrist_L/PinkyFinger1_L/PinkyFinger2_L
    m_Weight: 0
  - m_Path: Main/DeformationSystem/Root_M/Spine1_M/Chest_M/Scapula_L/Shoulder_L/Elbow_L/Wrist_L/PinkyFinger1_L/PinkyFinger2_L/PinkyFinger3_L
    m_Weight: 0
  - m_Path: Main/DeformationSystem/Root_M/Spine1_M/Chest_M/Scapula_L/Shoulder_L/Elbow_L/Wrist_L/RingFinger1_L
    m_Weight: 0
  - m_Path: Main/DeformationSystem/Root_M/Spine1_M/Chest_M/Scapula_L/Shoulder_L/Elbow_L/Wrist_L/RingFinger1_L/RingFinger2_L
    m_Weight: 0
  - m_Path: Main/DeformationSystem/Root_M/Spine1_M/Chest_M/Scapula_L/Shoulder_L/Elbow_L/Wrist_L/RingFinger1_L/RingFinger2_L/RingFinger3_L
    m_Weight: 0
  - m_Path: Main/DeformationSystem/Root_M/Spine1_M/Chest_M/Scapula_L/Shoulder_L/Elbow_L/Wrist_L/ThumbFinger1_L
    m_Weight: 0
  - m_Path: Main/DeformationSystem/Root_M/Spine1_M/Chest_M/Scapula_L/Shoulder_L/Elbow_L/Wrist_L/ThumbFinger1_L/ThumbFinger2_L
    m_Weight: 0
  - m_Path: Main/DeformationSystem/Root_M/Spine1_M/Chest_M/Scapula_L/Shoulder_L/Elbow_L/Wrist_L/ThumbFinger1_L/ThumbFinger2_L/ThumbFinger3_L
    m_Weight: 0
  - m_Path: Main/DeformationSystem/Root_M/Spine1_M/Chest_M/Scapula_R
    m_Weight: 0
  - m_Path: Main/DeformationSystem/Root_M/Spine1_M/Chest_M/Scapula_R/Shoulder_R
    m_Weight: 0
  - m_Path: Main/DeformationSystem/Root_M/Spine1_M/Chest_M/Scapula_R/Shoulder_R/Elbow_R
    m_Weight: 0
  - m_Path: Main/DeformationSystem/Root_M/Spine1_M/Chest_M/Scapula_R/Shoulder_R/Elbow_R/Wrist_R
    m_Weight: 0
  - m_Path: Main/DeformationSystem/Root_M/Spine1_M/Chest_M/Scapula_R/Shoulder_R/Elbow_R/Wrist_R/IndexFinger1_R
    m_Weight: 0
  - m_Path: Main/DeformationSystem/Root_M/Spine1_M/Chest_M/Scapula_R/Shoulder_R/Elbow_R/Wrist_R/IndexFinger1_R/IndexFinger2_R
    m_Weight: 0
  - m_Path: Main/DeformationSystem/Root_M/Spine1_M/Chest_M/Scapula_R/Shoulder_R/Elbow_R/Wrist_R/IndexFinger1_R/IndexFinger2_R/IndexFinger3_R
    m_Weight: 0
  - m_Path: Main/DeformationSystem/Root_M/Spine1_M/Chest_M/Scapula_R/Shoulder_R/Elbow_R/Wrist_R/MiddleFinger1_R
    m_Weight: 0
  - m_Path: Main/DeformationSystem/Root_M/Spine1_M/Chest_M/Scapula_R/Shoulder_R/Elbow_R/Wrist_R/MiddleFinger1_R/MiddleFinger2_R
    m_Weight: 0
  - m_Path: Main/DeformationSystem/Root_M/Spine1_M/Chest_M/Scapula_R/Shoulder_R/Elbow_R/Wrist_R/MiddleFinger1_R/MiddleFinger2_R/MiddleFinger3_R
    m_Weight: 0
  - m_Path: Main/DeformationSystem/Root_M/Spine1_M/Chest_M/Scapula_R/Shoulder_R/Elbow_R/Wrist_R/PinkyFinger1_R
    m_Weight: 0
  - m_Path: Main/DeformationSystem/Root_M/Spine1_M/Chest_M/Scapula_R/Shoulder_R/Elbow_R/Wrist_R/PinkyFinger1_R/PinkyFinger2_R
    m_Weight: 0
  - m_Path: Main/DeformationSystem/Root_M/Spine1_M/Chest_M/Scapula_R/Shoulder_R/Elbow_R/Wrist_R/PinkyFinger1_R/PinkyFinger2_R/PinkyFinger3_R
    m_Weight: 0
  - m_Path: Main/DeformationSystem/Root_M/Spine1_M/Chest_M/Scapula_R/Shoulder_R/Elbow_R/Wrist_R/RingFinger1_R
    m_Weight: 0
  - m_Path: Main/DeformationSystem/Root_M/Spine1_M/Chest_M/Scapula_R/Shoulder_R/Elbow_R/Wrist_R/RingFinger1_R/RingFinger2_R
    m_Weight: 0
  - m_Path: Main/DeformationSystem/Root_M/Spine1_M/Chest_M/Scapula_R/Shoulder_R/Elbow_R/Wrist_R/RingFinger1_R/RingFinger2_R/RingFinger3_R
    m_Weight: 0
  - m_Path: Main/DeformationSystem/Root_M/Spine1_M/Chest_M/Scapula_R/Shoulder_R/Elbow_R/Wrist_R/ThumbFinger1_R
    m_Weight: 0
  - m_Path: Main/DeformationSystem/Root_M/Spine1_M/Chest_M/Scapula_R/Shoulder_R/Elbow_R/Wrist_R/ThumbFinger1_R/ThumbFinger2_R
    m_Weight: 0
  - m_Path: Main/DeformationSystem/Root_M/Spine1_M/Chest_M/Scapula_R/Shoulder_R/Elbow_R/Wrist_R/ThumbFinger1_R/ThumbFinger2_R/ThumbFinger3_R
    m_Weight: 0
